<?xml version="1.0" encoding="UTF-8"?>
<svg width="123px" height="123px" viewBox="0 0 123 123" version="1.1" xmlns="http://www.w3.org/2000/svg" xmlns:xlink="http://www.w3.org/1999/xlink">
    <!-- Generator: Sketch 52.5 (67469) - http://www.bohemiancoding.com/sketch -->
    <title>Group 2</title>
    <desc>Created with Sketch.</desc>
    <g id="Page-1" stroke="none" stroke-width="1" fill="none" fill-rule="evenodd">
        <g id="Group-2">
            <g id="ProjectAthena-03-(1)">
                <g id="Group" transform="translate(16.000000, 72.000000)" fill="#E3BF23" stroke="#DFBC39">
                    <path d="M1.508,8.65111111 L1.508,15.8288889 L0.501,15.8288889 L0.501,0.717777778 L3.446,0.717777778 C5.935,0.717777778 7.892,2.07777778 7.892,4.66555556 C7.892,7.17777778 6.087,8.65111111 3.465,8.65111111 L1.508,8.65111111 Z M1.508,7.74444444 L3.522,7.74444444 C5.498,7.74444444 6.847,6.59222222 6.847,4.68444444 C6.847,2.79555556 5.574,1.62444444 3.37,1.62444444 L1.527,1.62444444 L1.527,7.74444444 L1.508,7.74444444 Z" id="Shape" fill-rule="nonzero"></path>
                    <path d="M19.33,15.8288889 L14.409,8.68888889 L13.953,8.68888889 L13.953,15.8288889 L12.946,15.8288889 L12.946,0.717777778 L15.131,0.717777778 C16.29,0.717777778 17.335,0.812222222 18.342,1.49222222 C19.52,2.30444444 19.919,3.55111111 19.919,4.72222222 C19.919,6.21444444 19.254,7.76333333 17.373,8.38666667 C16.575,8.65111111 15.853,8.68888889 15.511,8.68888889 L20.47,15.8288889 L19.33,15.8288889 Z M13.953,7.78222222 L15.416,7.78222222 C17.582,7.78222222 18.874,6.64888889 18.874,4.70333333 C18.874,3.19222222 18.114,2.39888889 17.525,2.07777778 C16.879,1.71888889 15.796,1.62444444 15.207,1.62444444 L13.953,1.62444444 L13.953,7.78222222 Z" id="Shape" fill-rule="nonzero"></path>
                    <path d="M40.591,8.31111111 C40.591,12.6555556 37.152,16.0744444 32.706,16.0744444 C28.241,16.0744444 24.821,12.6555556 24.821,8.31111111 C24.821,3.96666667 28.26,0.528888889 32.706,0.528888889 C37.152,0.528888889 40.591,3.94777778 40.591,8.31111111 Z M39.546,8.31111111 C39.546,4.43888889 36.62,1.41666667 32.706,1.41666667 C28.792,1.41666667 25.866,4.42 25.866,8.31111111 C25.866,12.1644444 28.792,15.1677778 32.706,15.1677778 C36.639,15.1677778 39.546,12.1455556 39.546,8.31111111 Z" id="Shape" fill-rule="nonzero"></path>
                    <path d="M48.058,0.717777778 L48.058,12.8822222 C48.058,13.5811111 48.039,14.62 47.298,15.3755556 C46.861,15.81 46.253,16.0744444 45.398,16.0744444 C44.695,16.0744444 44.22,15.8855556 43.726,15.5077778 C43.232,15.13 42.947,14.6766667 42.833,14.4877778 L43.536,13.9022222 C43.726,14.2422222 43.973,14.5633333 44.239,14.7711111 C44.619,15.0733333 45.037,15.1866667 45.417,15.1866667 C45.835,15.1866667 46.234,15.0355556 46.519,14.7522222 C46.994,14.28 47.013,13.6188889 47.013,13.0522222 L47.013,0.736666667 L48.058,0.736666667 L48.058,0.717777778 Z" id="Path"></path>
                    <polygon id="Path" points="61.738 1.62444444 55.449 1.62444444 55.449 7.10222222 61.605 7.10222222 61.605 8.00888889 55.449 8.00888889 55.449 14.9222222 61.738 14.9222222 61.738 15.8288889 54.442 15.8288889 54.442 0.717777778 61.738 0.717777778 61.738 1.62444444"></polygon>
                    <path d="M79.465,3.79666667 C78.173,2.28555556 76.292,1.41666667 74.335,1.41666667 C70.44,1.41666667 67.514,4.51444444 67.514,8.34888889 C67.514,12.8444444 71.276,15.1677778 74.354,15.1677778 C75.874,15.1677778 77.907,14.5633333 79.465,12.8822222 L79.465,14.2044444 C77.907,15.5644444 76.045,16.0933333 74.411,16.0933333 C69.851,16.0933333 66.488,12.5422222 66.488,8.33 C66.488,3.98555556 70.003,0.547777778 74.373,0.547777778 C77.261,0.547777778 79.028,2.09666667 79.484,2.51222222 L79.484,3.79666667 L79.465,3.79666667 Z" id="Path"></path>
                    <polygon id="Path" points="88.262 1.62444444 88.262 15.8288889 87.255 15.8288889 87.255 1.62444444 83.303 1.62444444 83.303 0.717777778 92.195 0.717777778 92.195 1.62444444"></polygon>
                </g>
                <g id="Group" transform="translate(11.000000, 93.000000)" fill="#3E8ACA" stroke="#4D8DC7">
                    <path d="M9.71,10.78 L3.26888889,10.78 L1.24777778,15.777 L0.152222222,15.777 L6.51777778,0.121 L12.7888889,15.777 L11.6933333,15.777 L9.71,10.78 Z M9.33222222,9.868 L6.49888889,2.667 L3.62777778,9.868 L9.33222222,9.868 Z" id="Shape" fill-rule="nonzero"></path>
                    <polygon id="Path" points="21.4966667 1.47 21.4966667 15.758 20.4955556 15.758 20.4955556 1.47 16.5666667 1.47 16.5666667 0.558 25.4066667 0.558 25.4066667 1.47"></polygon>
                    <polygon id="Path" points="33.0755556 7.018 42.2366667 7.018 42.2366667 0.577 43.2377778 0.577 43.2377778 15.777 42.2366667 15.777 42.2366667 7.93 33.0755556 7.93 33.0755556 15.777 32.0744444 15.777 32.0744444 0.577 33.0755556 0.577"></polygon>
                    <polygon id="Path" points="58.8588889 1.47 52.6066667 1.47 52.6066667 6.98 58.7266667 6.98 58.7266667 7.892 52.6066667 7.892 52.6066667 14.846 58.8588889 14.846 58.8588889 15.758 51.6055556 15.758 51.6055556 0.558 58.8588889 0.558"></polygon>
                    <polygon id="Path" points="66.4333333 15.758 66.4333333 0.406 79.1266667 13.763 79.1266667 0.577 80.1277778 0.577 80.1277778 16.157 67.4344444 2.8 67.4344444 15.758"></polygon>
                    <path d="M96.3344444,10.78 L89.8933333,10.78 L87.8722222,15.777 L86.7766667,15.777 L93.1422222,0.121 L99.4133333,15.777 L98.3555556,15.777 L96.3344444,10.78 Z M95.9755556,9.868 L93.1422222,2.667 L90.2711111,9.868 L95.9755556,9.868 Z" id="Shape" fill-rule="nonzero"></path>
                </g>
                <path d="M1.25,1.25 L1.25,121.75 L121.75,121.75 L121.75,1.25 L1.25,1.25 Z M122.25,0.75 L122.25,122.25 L0.75,122.25 L0.75,0.75 L122.25,0.75 Z" id="Rectangle" stroke="#4D8DC7" fill="#3E8ACA" fill-rule="nonzero"></path>
            </g>
        </g>
    </g>
</svg>